Instagram;used to like this app. But there's a major problem recently. I can't view my prevoous post. All the images just couldn't load! I know this has nothing to do witt my internet connection as I'm able to view my friends' images on their account. PLEASE FEEDBACK. It's frustrating!;1
Instagram;"I love the app, but I woke up today to it not working after updating it yesterday. Yes, I've restarted my phone, and have uninstalled and reinstalled the app. I can't see posts from less than 10 hours ago, can't see people's posts on their profile, and can't view stories. None of it will load.";2
Instagram;"Everything is so addictive about Instagram. But it's a shame that we cannot understand some captions and comments just because people use different language or fonts (Arabic, Japanese, Russian, Chinese, Korean). Make the translation possible for comments and captions and I will give you 5 stars.";4
Instagram;"Something is really wrong going with Instagram. And it's not working properly. Many of my friends and me are not able to see stories and able to see the post and we aren't able to listen to the audios !! I am not liking this. Please solve this, please!!! I hope you guys will take an action.!!!";5
Twitter;The "Mark media you Tweet as containing material that may be sensitive" setting causes your own tweets to be hidden from your own timeline and also prevents receiving notifications for those tweets. It's been doing this for quite a while now. Can you please fix this?;1
Twitter;"A very good form to express your political views, however this is monitored. I find that there is a liberal control behind this app.";2
Twitter;Twitter needs to continue monitoring the bot community. They clutter the conversation and images they display are often disturbing. Fix your latest update. The hashtags are all screwed up.;4
Twitter;great app. great persons on this platform who are inspiring millions of people around the world helping society in different ways.;5
Twitter;Twitter is my favorite app. it's the kind of app you download but dont really vibe or understand so you delete it but then later you re download and get back on and then its dope. Twitter has a lot of different areas so you gotta follow people who be about your stuff. astro Twitter is dope. also meme content is legendary and threads on Twitter will Have you on the floor.. it really be that funny at times. sometimes people get really mean and incentive. if you get this app just be positive :);5
Twitter;"Thanks to Twitter I am able to find the truths and share the latest political wrongdoings of the unfortunate president of Brazil bolsonaro and his milicia family, which are devastating our democracy, economy and reintroducing the truculent authoritarian regime, which bozo knows so well, when he worked for the dictatorship era during the 1964 coup - 1973 to 1988. The news are bias in Brazil, specifically Globo who makes no mention whatsoever of it, a disgrace. And lastly, viva Glenn Greenwald!";5
